Project Description 
- A user can signup using email / password (FIrst, name can bbe taken as well) 
- A user can sign in using email and password 
- A user can upload a blog post (Text and Images) 

- All blog posts can be viewed 
- A single blog post can be viewed 


Image uupload should be done to Amazon S3

=====================================================================================

Entities 
- User 
- Blog 

Relationships 
- A User hasMany Blogs 
- A blog belongsToOne User 

User 
- id
- first_name 
- last_name
- Email 
- Password 
- cretaedAt 

Blog
- id
- user_id  
- description 
- content
- image 




